<?xml version="1.0" encoding="UTF-8" standalone="no"?>
<!DOCTYPE svg PUBLIC "-//W3C//DTD SVG 1.1//EN"
 "http://www.w3.org/Graphics/SVG/1.1/DTD/svg11.dtd">
<!-- Generated by graphviz version 2.47.3 (20210619.1520)
 -->
<!-- Title: dependencies Pages: 1 -->
<svg width="302pt" height="174pt"
 viewBox="0.00 0.00 302.00 173.80" xmlns="http://www.w3.org/2000/svg" xmlns:xlink="http://www.w3.org/1999/xlink">
<g id="graph0" class="graph" transform="scale(1 1) rotate(0) translate(4 169.8)">
<title>dependencies</title>
<polygon fill="white" stroke="transparent" points="-4,4 -4,-169.8 298,-169.8 298,4 -4,4"/>
<text text-anchor="middle" x="147" y="-8.2" font-family="sans-serif" font-size="14.00">dependencies</text>
<g id="clust1" class="cluster">
<title>cluster_TeamsListModule</title>
<polygon fill="none" stroke="black" stroke-dasharray="1,5" points="8,-32.8 8,-157.8 286,-157.8 286,-32.8 8,-32.8"/>
</g>
<g id="clust2" class="cluster">
<title>cluster_TeamsListModule_declarations</title>
<polygon fill="none" stroke="black" points="122,-40.8 122,-92.8 278,-92.8 278,-40.8 122,-40.8"/>
</g>
<g id="clust4" class="cluster">
<title>cluster_TeamsListModule_imports</title>
<polygon fill="none" stroke="black" points="16,-40.8 16,-92.8 114,-92.8 114,-40.8 16,-40.8"/>
</g>
<!-- TeamsListComponent -->
<g id="node1" class="node">
<title>TeamsListComponent</title>
<polygon fill="#ffffb3" stroke="black" points="270.43,-84.8 129.57,-84.8 129.57,-48.8 270.43,-48.8 270.43,-84.8"/>
<text text-anchor="middle" x="200" y="-62.6" font-family="Times,serif" font-size="14.00">TeamsListComponent</text>
</g>
<!-- TeamsListModule -->
<g id="node2" class="node">
<title>TeamsListModule</title>
<polygon fill="#8dd3c7" stroke="black" points="196.15,-149.8 193.15,-153.8 172.15,-153.8 169.15,-149.8 77.85,-149.8 77.85,-113.8 196.15,-113.8 196.15,-149.8"/>
<text text-anchor="middle" x="137" y="-127.6" font-family="Times,serif" font-size="14.00">TeamsListModule</text>
</g>
<!-- TeamsListComponent&#45;&gt;TeamsListModule -->
<g id="edge1" class="edge">
<title>TeamsListComponent&#45;&gt;TeamsListModule</title>
<path fill="none" stroke="black" d="M163.05,-84.91C163.05,-84.91 163.05,-103.79 163.05,-103.79"/>
<polygon fill="black" stroke="black" points="159.55,-103.79 163.05,-113.79 166.55,-103.79 159.55,-103.79"/>
</g>
<!-- ListModule -->
<g id="node3" class="node">
<title>ListModule</title>
<polygon fill="#8dd3c7" stroke="black" points="105.83,-84.8 102.83,-88.8 81.83,-88.8 78.83,-84.8 24.17,-84.8 24.17,-48.8 105.83,-48.8 105.83,-84.8"/>
<text text-anchor="middle" x="65" y="-62.6" font-family="Times,serif" font-size="14.00">ListModule</text>
</g>
<!-- ListModule&#45;&gt;TeamsListModule -->
<g id="edge2" class="edge">
<title>ListModule&#45;&gt;TeamsListModule</title>
<path fill="none" stroke="black" d="M91.67,-84.91C91.67,-84.91 91.67,-103.79 91.67,-103.79"/>
<polygon fill="black" stroke="black" points="88.17,-103.79 91.67,-113.79 95.17,-103.79 88.17,-103.79"/>
</g>
</g>
</svg>
